('C:\\Users\\ferna\\PycharmProjects\\RetriveCoin\\build\\ScheduleRetriveService\\PYZ-00.pyz',
 [('pkg_resources',
   'c:\\users\\ferna\\appdata\\local\\programs\\python\\python38-32\\lib\\site-packages\\pkg_resources\\__init__.py',
   'PYMODULE'),
  ('pkg_resources._vendor.packaging._structures',
   'c:\\users\\ferna\\appdata\\local\\programs\\python\\python38-32\\lib\\site-packages\\pkg_resources\\_vendor\\packaging\\_structures.py',
   'PYMODULE'),
  ('__future__',
   'c:\\users\\ferna\\appdata\\local\\programs\\python\\python38-32\\lib\\__future__.py',
   'PYMODULE'),
  ('pkg_resources._vendor.packaging.__about__',
   'c:\\users\\ferna\\appdata\\local\\programs\\python\\python38-32\\lib\\site-packages\\pkg_resources\\_vendor\\packaging\\__about__.py',
   'PYMODULE'),
  ('pkg_resources._vendor.packaging._compat',
   'c:\\users\\ferna\\appdata\\local\\programs\\python\\python38-32\\lib\\site-packages\\pkg_resources\\_vendor\\packaging\\_compat.py',
   'PYMODULE'),
  ('typing',
   'c:\\users\\ferna\\appdata\\local\\programs\\python\\python38-32\\lib\\typing.py',
   'PYMODULE'),
  ('contextlib',
   'c:\\users\\ferna\\appdata\\local\\programs\\python\\python38-32\\lib\\contextlib.py',
   'PYMODULE'),
  ('pkg_resources._vendor.packaging._typing',
   'c:\\users\\ferna\\appdata\\local\\programs\\python\\python38-32\\lib\\site-packages\\pkg_resources\\_vendor\\packaging\\_typing.py',
   'PYMODULE'),
  ('pkg_resources._vendor.packaging.requirements',
   'c:\\users\\ferna\\appdata\\local\\programs\\python\\python38-32\\lib\\site-packages\\pkg_resources\\_vendor\\packaging\\requirements.py',
   'PYMODULE'),
  ('urllib.parse',
   'c:\\users\\ferna\\appdata\\local\\programs\\python\\python38-32\\lib\\urllib\\parse.py',
   'PYMODULE'),
  ('urllib',
   'c:\\users\\ferna\\appdata\\local\\programs\\python\\python38-32\\lib\\urllib\\__init__.py',
   'PYMODULE'),
  ('string',
   'c:\\users\\ferna\\appdata\\local\\programs\\python\\python38-32\\lib\\string.py',
   'PYMODULE'),
  ('pkg_resources._vendor',
   'c:\\users\\ferna\\appdata\\local\\programs\\python\\python38-32\\lib\\site-packages\\pkg_resources\\_vendor\\__init__.py',
   'PYMODULE'),
  ('pkg_resources._vendor.packaging.markers',
   'c:\\users\\ferna\\appdata\\local\\programs\\python\\python38-32\\lib\\site-packages\\pkg_resources\\_vendor\\packaging\\markers.py',
   'PYMODULE'),
  ('pkg_resources._vendor.packaging.version',
   'c:\\users\\ferna\\appdata\\local\\programs\\python\\python38-32\\lib\\site-packages\\pkg_resources\\_vendor\\packaging\\version.py',
   'PYMODULE'),
  ('pkg_resources._vendor.pyparsing',
   'c:\\users\\ferna\\appdata\\local\\programs\\python\\python38-32\\lib\\site-packages\\pkg_resources\\_vendor\\pyparsing.py',
   'PYMODULE'),
  ('uuid',
   'c:\\users\\ferna\\appdata\\local\\programs\\python\\python38-32\\lib\\uuid.py',
   'PYMODULE'),
  ('hashlib',
   'c:\\users\\ferna\\appdata\\local\\programs\\python\\python38-32\\lib\\hashlib.py',
   'PYMODULE'),
  ('logging',
   'c:\\users\\ferna\\appdata\\local\\programs\\python\\python38-32\\lib\\logging\\__init__.py',
   'PYMODULE'),
  ('pickle',
   'c:\\users\\ferna\\appdata\\local\\programs\\python\\python38-32\\lib\\pickle.py',
   'PYMODULE'),
  ('doctest',
   'c:\\users\\ferna\\appdata\\local\\programs\\python\\python38-32\\lib\\doctest.py',
   'PYMODULE'),
  ('argparse',
   'c:\\users\\ferna\\appdata\\local\\programs\\python\\python38-32\\lib\\argparse.py',
   'PYMODULE'),
  ('gettext',
   'c:\\users\\ferna\\appdata\\local\\programs\\python\\python38-32\\lib\\gettext.py',
   'PYMODULE'),
  ('unittest',
   'c:\\users\\ferna\\appdata\\local\\programs\\python\\python38-32\\lib\\unittest\\__init__.py',
   'PYMODULE'),
  ('unittest.signals',
   'c:\\users\\ferna\\appdata\\local\\programs\\python\\python38-32\\lib\\unittest\\signals.py',
   'PYMODULE'),
  ('signal',
   'c:\\users\\ferna\\appdata\\local\\programs\\python\\python38-32\\lib\\signal.py',
   'PYMODULE'),
  ('unittest.main',
   'c:\\users\\ferna\\appdata\\local\\programs\\python\\python38-32\\lib\\unittest\\main.py',
   'PYMODULE'),
  ('unittest.runner',
   'c:\\users\\ferna\\appdata\\local\\programs\\python\\python38-32\\lib\\unittest\\runner.py',
   'PYMODULE'),
  ('unittest.loader',
   'c:\\users\\ferna\\appdata\\local\\programs\\python\\python38-32\\lib\\unittest\\loader.py',
   'PYMODULE'),
  ('fnmatch',
   'c:\\users\\ferna\\appdata\\local\\programs\\python\\python38-32\\lib\\fnmatch.py',
   'PYMODULE'),
  ('unittest.suite',
   'c:\\users\\ferna\\appdata\\local\\programs\\python\\python38-32\\lib\\unittest\\suite.py',
   'PYMODULE'),
  ('unittest.case',
   'c:\\users\\ferna\\appdata\\local\\programs\\python\\python38-32\\lib\\unittest\\case.py',
   'PYMODULE'),
  ('unittest.async_case',
   'c:\\users\\ferna\\appdata\\local\\programs\\python\\python38-32\\lib\\unittest\\async_case.py',
   'PYMODULE'),
  ('asyncio',
   'c:\\users\\ferna\\appdata\\local\\programs\\python\\python38-32\\lib\\asyncio\\__init__.py',
   'PYMODULE'),
  ('asyncio.unix_events',
   'c:\\users\\ferna\\appdata\\local\\programs\\python\\python38-32\\lib\\asyncio\\unix_events.py',
   'PYMODULE'),
  ('asyncio.log',
   'c:\\users\\ferna\\appdata\\local\\programs\\python\\python38-32\\lib\\asyncio\\log.py',
   'PYMODULE'),
  ('selectors',
   'c:\\users\\ferna\\appdata\\local\\programs\\python\\python38-32\\lib\\selectors.py',
   'PYMODULE'),
  ('asyncio.windows_events',
   'c:\\users\\ferna\\appdata\\local\\programs\\python\\python38-32\\lib\\asyncio\\windows_events.py',
   'PYMODULE'),
  ('asyncio.windows_utils',
   'c:\\users\\ferna\\appdata\\local\\programs\\python\\python38-32\\lib\\asyncio\\windows_utils.py',
   'PYMODULE'),
  ('asyncio.selector_events',
   'c:\\users\\ferna\\appdata\\local\\programs\\python\\python38-32\\lib\\asyncio\\selector_events.py',
   'PYMODULE'),
  ('ssl',
   'c:\\users\\ferna\\appdata\\local\\programs\\python\\python38-32\\lib\\ssl.py',
   'PYMODULE'),
  ('calendar',
   'c:\\users\\ferna\\appdata\\local\\programs\\python\\python38-32\\lib\\calendar.py',
   'PYMODULE'),
  ('base64',
   'c:\\users\\ferna\\appdata\\local\\programs\\python\\python38-32\\lib\\base64.py',
   'PYMODULE'),
  ('getopt',
   'c:\\users\\ferna\\appdata\\local\\programs\\python\\python38-32\\lib\\getopt.py',
   'PYMODULE'),
  ('asyncio.proactor_events',
   'c:\\users\\ferna\\appdata\\local\\programs\\python\\python38-32\\lib\\asyncio\\proactor_events.py',
   'PYMODULE'),
  ('asyncio.base_subprocess',
   'c:\\users\\ferna\\appdata\\local\\programs\\python\\python38-32\\lib\\asyncio\\base_subprocess.py',
   'PYMODULE'),
  ('asyncio.subprocess',
   'c:\\users\\ferna\\appdata\\local\\programs\\python\\python38-32\\lib\\asyncio\\subprocess.py',
   'PYMODULE'),
  ('asyncio.streams',
   'c:\\users\\ferna\\appdata\\local\\programs\\python\\python38-32\\lib\\asyncio\\streams.py',
   'PYMODULE'),
  ('asyncio.queues',
   'c:\\users\\ferna\\appdata\\local\\programs\\python\\python38-32\\lib\\asyncio\\queues.py',
   'PYMODULE'),
  ('asyncio.runners',
   'c:\\users\\ferna\\appdata\\local\\programs\\python\\python38-32\\lib\\asyncio\\runners.py',
   'PYMODULE'),
  ('asyncio.trsock',
   'c:\\users\\ferna\\appdata\\local\\programs\\python\\python38-32\\lib\\asyncio\\trsock.py',
   'PYMODULE'),
  ('asyncio.staggered',
   'c:\\users\\ferna\\appdata\\local\\programs\\python\\python38-32\\lib\\asyncio\\staggered.py',
   'PYMODULE'),
  ('asyncio.tasks',
   'c:\\users\\ferna\\appdata\\local\\programs\\python\\python38-32\\lib\\asyncio\\tasks.py',
   'PYMODULE'),
  ('contextvars',
   'c:\\users\\ferna\\appdata\\local\\programs\\python\\python38-32\\lib\\contextvars.py',
   'PYMODULE'),
  ('concurrent.futures',
   'c:\\users\\ferna\\appdata\\local\\programs\\python\\python38-32\\lib\\concurrent\\futures\\__init__.py',
   'PYMODULE'),
  ('concurrent.futures.thread',
   'c:\\users\\ferna\\appdata\\local\\programs\\python\\python38-32\\lib\\concurrent\\futures\\thread.py',
   'PYMODULE'),
  ('queue',
   'c:\\users\\ferna\\appdata\\local\\programs\\python\\python38-32\\lib\\queue.py',
   'PYMODULE'),
  ('concurrent.futures.process',
   'c:\\users\\ferna\\appdata\\local\\programs\\python\\python38-32\\lib\\concurrent\\futures\\process.py',
   'PYMODULE'),
  ('multiprocessing.queues',
   'c:\\users\\ferna\\appdata\\local\\programs\\python\\python38-32\\lib\\multiprocessing\\queues.py',
   'PYMODULE'),
  ('multiprocessing.synchronize',
   'c:\\users\\ferna\\appdata\\local\\programs\\python\\python38-32\\lib\\multiprocessing\\synchronize.py',
   'PYMODULE'),
  ('multiprocessing.heap',
   'c:\\users\\ferna\\appdata\\local\\programs\\python\\python38-32\\lib\\multiprocessing\\heap.py',
   'PYMODULE'),
  ('bisect',
   'c:\\users\\ferna\\appdata\\local\\programs\\python\\python38-32\\lib\\bisect.py',
   'PYMODULE'),
  ('multiprocessing.resource_tracker',
   'c:\\users\\ferna\\appdata\\local\\programs\\python\\python38-32\\lib\\multiprocessing\\resource_tracker.py',
   'PYMODULE'),
  ('multiprocessing.spawn',
   'c:\\users\\ferna\\appdata\\local\\programs\\python\\python38-32\\lib\\multiprocessing\\spawn.py',
   'PYMODULE'),
  ('runpy',
   'c:\\users\\ferna\\appdata\\local\\programs\\python\\python38-32\\lib\\runpy.py',
   'PYMODULE'),
  ('importlib.util',
   'c:\\users\\ferna\\appdata\\local\\programs\\python\\python38-32\\lib\\importlib\\util.py',
   'PYMODULE'),
  ('importlib._bootstrap_external',
   'c:\\users\\ferna\\appdata\\local\\programs\\python\\python38-32\\lib\\importlib\\_bootstrap_external.py',
   'PYMODULE'),
  ('importlib.metadata',
   'c:\\users\\ferna\\appdata\\local\\programs\\python\\python38-32\\lib\\importlib\\metadata.py',
   'PYMODULE'),
  ('configparser',
   'c:\\users\\ferna\\appdata\\local\\programs\\python\\python38-32\\lib\\configparser.py',
   'PYMODULE'),
  ('email',
   'c:\\users\\ferna\\appdata\\local\\programs\\python\\python38-32\\lib\\email\\__init__.py',
   'PYMODULE'),
  ('email._header_value_parser',
   'c:\\users\\ferna\\appdata\\local\\programs\\python\\python38-32\\lib\\email\\_header_value_parser.py',
   'PYMODULE'),
  ('email.utils',
   'c:\\users\\ferna\\appdata\\local\\programs\\python\\python38-32\\lib\\email\\utils.py',
   'PYMODULE'),
  ('email._parseaddr',
   'c:\\users\\ferna\\appdata\\local\\programs\\python\\python38-32\\lib\\email\\_parseaddr.py',
   'PYMODULE'),
  ('email._encoded_words',
   'c:\\users\\ferna\\appdata\\local\\programs\\python\\python38-32\\lib\\email\\_encoded_words.py',
   'PYMODULE'),
  ('email.header',
   'c:\\users\\ferna\\appdata\\local\\programs\\python\\python38-32\\lib\\email\\header.py',
   'PYMODULE'),
  ('email.base64mime',
   'c:\\users\\ferna\\appdata\\local\\programs\\python\\python38-32\\lib\\email\\base64mime.py',
   'PYMODULE'),
  ('email.quoprimime',
   'c:\\users\\ferna\\appdata\\local\\programs\\python\\python38-32\\lib\\email\\quoprimime.py',
   'PYMODULE'),
  ('email.charset',
   'c:\\users\\ferna\\appdata\\local\\programs\\python\\python38-32\\lib\\email\\charset.py',
   'PYMODULE'),
  ('email.encoders',
   'c:\\users\\ferna\\appdata\\local\\programs\\python\\python38-32\\lib\\email\\encoders.py',
   'PYMODULE'),
  ('quopri',
   'c:\\users\\ferna\\appdata\\local\\programs\\python\\python38-32\\lib\\quopri.py',
   'PYMODULE'),
  ('email.errors',
   'c:\\users\\ferna\\appdata\\local\\programs\\python\\python38-32\\lib\\email\\errors.py',
   'PYMODULE'),
  ('csv',
   'c:\\users\\ferna\\appdata\\local\\programs\\python\\python38-32\\lib\\csv.py',
   'PYMODULE'),
  ('tokenize',
   'c:\\users\\ferna\\appdata\\local\\programs\\python\\python38-32\\lib\\tokenize.py',
   'PYMODULE'),
  ('token',
   'c:\\users\\ferna\\appdata\\local\\programs\\python\\python38-32\\lib\\token.py',
   'PYMODULE'),
  ('importlib._bootstrap',
   'c:\\users\\ferna\\appdata\\local\\programs\\python\\python38-32\\lib\\importlib\\_bootstrap.py',
   'PYMODULE'),
  ('importlib.abc',
   'c:\\users\\ferna\\appdata\\local\\programs\\python\\python38-32\\lib\\importlib\\abc.py',
   'PYMODULE'),
  ('multiprocessing.process',
   'c:\\users\\ferna\\appdata\\local\\programs\\python\\python38-32\\lib\\multiprocessing\\process.py',
   'PYMODULE'),
  ('multiprocessing.util',
   'c:\\users\\ferna\\appdata\\local\\programs\\python\\python38-32\\lib\\multiprocessing\\util.py',
   'PYMODULE'),
  ('multiprocessing.context',
   'c:\\users\\ferna\\appdata\\local\\programs\\python\\python38-32\\lib\\multiprocessing\\context.py',
   'PYMODULE'),
  ('multiprocessing.popen_spawn_win32',
   'c:\\users\\ferna\\appdata\\local\\programs\\python\\python38-32\\lib\\multiprocessing\\popen_spawn_win32.py',
   'PYMODULE'),
  ('multiprocessing.popen_forkserver',
   'c:\\users\\ferna\\appdata\\local\\programs\\python\\python38-32\\lib\\multiprocessing\\popen_forkserver.py',
   'PYMODULE'),
  ('multiprocessing.popen_spawn_posix',
   'c:\\users\\ferna\\appdata\\local\\programs\\python\\python38-32\\lib\\multiprocessing\\popen_spawn_posix.py',
   'PYMODULE'),
  ('multiprocessing.popen_fork',
   'c:\\users\\ferna\\appdata\\local\\programs\\python\\python38-32\\lib\\multiprocessing\\popen_fork.py',
   'PYMODULE'),
  ('multiprocessing.forkserver',
   'c:\\users\\ferna\\appdata\\local\\programs\\python\\python38-32\\lib\\multiprocessing\\forkserver.py',
   'PYMODULE'),
  ('multiprocessing.sharedctypes',
   'c:\\users\\ferna\\appdata\\local\\programs\\python\\python38-32\\lib\\multiprocessing\\sharedctypes.py',
   'PYMODULE'),
  ('multiprocessing.pool',
   'c:\\users\\ferna\\appdata\\local\\programs\\python\\python38-32\\lib\\multiprocessing\\pool.py',
   'PYMODULE'),
  ('multiprocessing.dummy',
   'c:\\users\\ferna\\appdata\\local\\programs\\python\\python38-32\\lib\\multiprocessing\\dummy\\__init__.py',
   'PYMODULE'),
  ('multiprocessing.dummy.connection',
   'c:\\users\\ferna\\appdata\\local\\programs\\python\\python38-32\\lib\\multiprocessing\\dummy\\connection.py',
   'PYMODULE'),
  ('multiprocessing.managers',
   'c:\\users\\ferna\\appdata\\local\\programs\\python\\python38-32\\lib\\multiprocessing\\managers.py',
   'PYMODULE'),
  ('multiprocessing.shared_memory',
   'c:\\users\\ferna\\appdata\\local\\programs\\python\\python38-32\\lib\\multiprocessing\\shared_memory.py',
   'PYMODULE'),
  ('secrets',
   'c:\\users\\ferna\\appdata\\local\\programs\\python\\python38-32\\lib\\secrets.py',
   'PYMODULE'),
  ('hmac',
   'c:\\users\\ferna\\appdata\\local\\programs\\python\\python38-32\\lib\\hmac.py',
   'PYMODULE'),
  ('multiprocessing.reduction',
   'c:\\users\\ferna\\appdata\\local\\programs\\python\\python38-32\\lib\\multiprocessing\\reduction.py',
   'PYMODULE'),
  ('multiprocessing.resource_sharer',
   'c:\\users\\ferna\\appdata\\local\\programs\\python\\python38-32\\lib\\multiprocessing\\resource_sharer.py',
   'PYMODULE'),
  ('multiprocessing.connection',
   'c:\\users\\ferna\\appdata\\local\\programs\\python\\python38-32\\lib\\multiprocessing\\connection.py',
   'PYMODULE'),
  ('xmlrpc.client',
   'c:\\users\\ferna\\appdata\\local\\programs\\python\\python38-32\\lib\\xmlrpc\\client.py',
   'PYMODULE'),
  ('xmlrpc',
   'c:\\users\\ferna\\appdata\\local\\programs\\python\\python38-32\\lib\\xmlrpc\\__init__.py',
   'PYMODULE'),
  ('gzip',
   'c:\\users\\ferna\\appdata\\local\\programs\\python\\python38-32\\lib\\gzip.py',
   'PYMODULE'),
  ('_compression',
   'c:\\users\\ferna\\appdata\\local\\programs\\python\\python38-32\\lib\\_compression.py',
   'PYMODULE'),
  ('xml.parsers.expat',
   'c:\\users\\ferna\\appdata\\local\\programs\\python\\python38-32\\lib\\xml\\parsers\\expat.py',
   'PYMODULE'),
  ('xml.parsers',
   'c:\\users\\ferna\\appdata\\local\\programs\\python\\python38-32\\lib\\xml\\parsers\\__init__.py',
   'PYMODULE'),
  ('xml',
   'c:\\users\\ferna\\appdata\\local\\programs\\python\\python38-32\\lib\\xml\\__init__.py',
   'PYMODULE'),
  ('xml.sax.expatreader',
   'c:\\users\\ferna\\appdata\\local\\programs\\python\\python38-32\\lib\\xml\\sax\\expatreader.py',
   'PYMODULE'),
  ('xml.sax.saxutils',
   'c:\\users\\ferna\\appdata\\local\\programs\\python\\python38-32\\lib\\xml\\sax\\saxutils.py',
   'PYMODULE'),
  ('urllib.request',
   'c:\\users\\ferna\\appdata\\local\\programs\\python\\python38-32\\lib\\urllib\\request.py',
   'PYMODULE'),
  ('getpass',
   'c:\\users\\ferna\\appdata\\local\\programs\\python\\python38-32\\lib\\getpass.py',
   'PYMODULE'),
  ('nturl2path',
   'c:\\users\\ferna\\appdata\\local\\programs\\python\\python38-32\\lib\\nturl2path.py',
   'PYMODULE'),
  ('ftplib',
   'c:\\users\\ferna\\appdata\\local\\programs\\python\\python38-32\\lib\\ftplib.py',
   'PYMODULE'),
  ('netrc',
   'c:\\users\\ferna\\appdata\\local\\programs\\python\\python38-32\\lib\\netrc.py',
   'PYMODULE'),
  ('shlex',
   'c:\\users\\ferna\\appdata\\local\\programs\\python\\python38-32\\lib\\shlex.py',
   'PYMODULE'),
  ('mimetypes',
   'c:\\users\\ferna\\appdata\\local\\programs\\python\\python38-32\\lib\\mimetypes.py',
   'PYMODULE'),
  ('http.cookiejar',
   'c:\\users\\ferna\\appdata\\local\\programs\\python\\python38-32\\lib\\http\\cookiejar.py',
   'PYMODULE'),
  ('http',
   'c:\\users\\ferna\\appdata\\local\\programs\\python\\python38-32\\lib\\http\\__init__.py',
   'PYMODULE'),
  ('urllib.response',
   'c:\\users\\ferna\\appdata\\local\\programs\\python\\python38-32\\lib\\urllib\\response.py',
   'PYMODULE'),
  ('urllib.error',
   'c:\\users\\ferna\\appdata\\local\\programs\\python\\python38-32\\lib\\urllib\\error.py',
   'PYMODULE'),
  ('xml.sax',
   'c:\\users\\ferna\\appdata\\local\\programs\\python\\python38-32\\lib\\xml\\sax\\__init__.py',
   'PYMODULE'),
  ('xml.sax.handler',
   'c:\\users\\ferna\\appdata\\local\\programs\\python\\python38-32\\lib\\xml\\sax\\handler.py',
   'PYMODULE'),
  ('xml.sax._exceptions',
   'c:\\users\\ferna\\appdata\\local\\programs\\python\\python38-32\\lib\\xml\\sax\\_exceptions.py',
   'PYMODULE'),
  ('xml.sax.xmlreader',
   'c:\\users\\ferna\\appdata\\local\\programs\\python\\python38-32\\lib\\xml\\sax\\xmlreader.py',
   'PYMODULE'),
  ('http.client',
   'c:\\users\\ferna\\appdata\\local\\programs\\python\\python38-32\\lib\\http\\client.py',
   'PYMODULE'),
  ('email.message',
   'c:\\users\\ferna\\appdata\\local\\programs\\python\\python38-32\\lib\\email\\message.py',
   'PYMODULE'),
  ('email.policy',
   'c:\\users\\ferna\\appdata\\local\\programs\\python\\python38-32\\lib\\email\\policy.py',
   'PYMODULE'),
  ('email.contentmanager',
   'c:\\users\\ferna\\appdata\\local\\programs\\python\\python38-32\\lib\\email\\contentmanager.py',
   'PYMODULE'),
  ('email.headerregistry',
   'c:\\users\\ferna\\appdata\\local\\programs\\python\\python38-32\\lib\\email\\headerregistry.py',
   'PYMODULE'),
  ('email.iterators',
   'c:\\users\\ferna\\appdata\\local\\programs\\python\\python38-32\\lib\\email\\iterators.py',
   'PYMODULE'),
  ('email.generator',
   'c:\\users\\ferna\\appdata\\local\\programs\\python\\python38-32\\lib\\email\\generator.py',
   'PYMODULE'),
  ('email._policybase',
   'c:\\users\\ferna\\appdata\\local\\programs\\python\\python38-32\\lib\\email\\_policybase.py',
   'PYMODULE'),
  ('uu',
   'c:\\users\\ferna\\appdata\\local\\programs\\python\\python38-32\\lib\\uu.py',
   'PYMODULE'),
  ('optparse',
   'c:\\users\\ferna\\appdata\\local\\programs\\python\\python38-32\\lib\\optparse.py',
   'PYMODULE'),
  ('decimal',
   'c:\\users\\ferna\\appdata\\local\\programs\\python\\python38-32\\lib\\decimal.py',
   'PYMODULE'),
  ('_pydecimal',
   'c:\\users\\ferna\\appdata\\local\\programs\\python\\python38-32\\lib\\_pydecimal.py',
   'PYMODULE'),
  ('numbers',
   'c:\\users\\ferna\\appdata\\local\\programs\\python\\python38-32\\lib\\numbers.py',
   'PYMODULE'),
  ('multiprocessing',
   'c:\\users\\ferna\\appdata\\local\\programs\\python\\python38-32\\lib\\multiprocessing\\__init__.py',
   'PYMODULE'),
  ('concurrent.futures._base',
   'c:\\users\\ferna\\appdata\\local\\programs\\python\\python38-32\\lib\\concurrent\\futures\\_base.py',
   'PYMODULE'),
  ('concurrent',
   'c:\\users\\ferna\\appdata\\local\\programs\\python\\python38-32\\lib\\concurrent\\__init__.py',
   'PYMODULE'),
  ('asyncio.base_tasks',
   'c:\\users\\ferna\\appdata\\local\\programs\\python\\python38-32\\lib\\asyncio\\base_tasks.py',
   'PYMODULE'),
  ('asyncio.locks',
   'c:\\users\\ferna\\appdata\\local\\programs\\python\\python38-32\\lib\\asyncio\\locks.py',
   'PYMODULE'),
  ('asyncio.sslproto',
   'c:\\users\\ferna\\appdata\\local\\programs\\python\\python38-32\\lib\\asyncio\\sslproto.py',
   'PYMODULE'),
  ('asyncio.transports',
   'c:\\users\\ferna\\appdata\\local\\programs\\python\\python38-32\\lib\\asyncio\\transports.py',
   'PYMODULE'),
  ('asyncio.base_events',
   'c:\\users\\ferna\\appdata\\local\\programs\\python\\python38-32\\lib\\asyncio\\base_events.py',
   'PYMODULE'),
  ('asyncio.protocols',
   'c:\\users\\ferna\\appdata\\local\\programs\\python\\python38-32\\lib\\asyncio\\protocols.py',
   'PYMODULE'),
  ('asyncio.futures',
   'c:\\users\\ferna\\appdata\\local\\programs\\python\\python38-32\\lib\\asyncio\\futures.py',
   'PYMODULE'),
  ('asyncio.events',
   'c:\\users\\ferna\\appdata\\local\\programs\\python\\python38-32\\lib\\asyncio\\events.py',
   'PYMODULE'),
  ('asyncio.exceptions',
   'c:\\users\\ferna\\appdata\\local\\programs\\python\\python38-32\\lib\\asyncio\\exceptions.py',
   'PYMODULE'),
  ('asyncio.coroutines',
   'c:\\users\\ferna\\appdata\\local\\programs\\python\\python38-32\\lib\\asyncio\\coroutines.py',
   'PYMODULE'),
  ('asyncio.base_futures',
   'c:\\users\\ferna\\appdata\\local\\programs\\python\\python38-32\\lib\\asyncio\\base_futures.py',
   'PYMODULE'),
  ('asyncio.format_helpers',
   'c:\\users\\ferna\\appdata\\local\\programs\\python\\python38-32\\lib\\asyncio\\format_helpers.py',
   'PYMODULE'),
  ('asyncio.constants',
   'c:\\users\\ferna\\appdata\\local\\programs\\python\\python38-32\\lib\\asyncio\\constants.py',
   'PYMODULE'),
  ('unittest.result',
   'c:\\users\\ferna\\appdata\\local\\programs\\python\\python38-32\\lib\\unittest\\result.py',
   'PYMODULE'),
  ('unittest.util',
   'c:\\users\\ferna\\appdata\\local\\programs\\python\\python38-32\\lib\\unittest\\util.py',
   'PYMODULE'),
  ('difflib',
   'c:\\users\\ferna\\appdata\\local\\programs\\python\\python38-32\\lib\\difflib.py',
   'PYMODULE'),
  ('_compat_pickle',
   'c:\\users\\ferna\\appdata\\local\\programs\\python\\python38-32\\lib\\_compat_pickle.py',
   'PYMODULE'),
  ('struct',
   'c:\\users\\ferna\\appdata\\local\\programs\\python\\python38-32\\lib\\struct.py',
   'PYMODULE'),
  ('random',
   'c:\\users\\ferna\\appdata\\local\\programs\\python\\python38-32\\lib\\random.py',
   'PYMODULE'),
  ('ctypes.util',
   'c:\\users\\ferna\\appdata\\local\\programs\\python\\python38-32\\lib\\ctypes\\util.py',
   'PYMODULE'),
  ('ctypes._aix',
   'c:\\users\\ferna\\appdata\\local\\programs\\python\\python38-32\\lib\\ctypes\\_aix.py',
   'PYMODULE'),
  ('ctypes.macholib.dyld',
   'c:\\users\\ferna\\appdata\\local\\programs\\python\\python38-32\\lib\\ctypes\\macholib\\dyld.py',
   'PYMODULE'),
  ('ctypes.macholib',
   'c:\\users\\ferna\\appdata\\local\\programs\\python\\python38-32\\lib\\ctypes\\macholib\\__init__.py',
   'PYMODULE'),
  ('ctypes.macholib.dylib',
   'c:\\users\\ferna\\appdata\\local\\programs\\python\\python38-32\\lib\\ctypes\\macholib\\dylib.py',
   'PYMODULE'),
  ('ctypes.macholib.framework',
   'c:\\users\\ferna\\appdata\\local\\programs\\python\\python38-32\\lib\\ctypes\\macholib\\framework.py',
   'PYMODULE'),
  ('ctypes',
   'c:\\users\\ferna\\appdata\\local\\programs\\python\\python38-32\\lib\\ctypes\\__init__.py',
   'PYMODULE'),
  ('ctypes._endian',
   'c:\\users\\ferna\\appdata\\local\\programs\\python\\python38-32\\lib\\ctypes\\_endian.py',
   'PYMODULE'),
  ('socket',
   'c:\\users\\ferna\\appdata\\local\\programs\\python\\python38-32\\lib\\socket.py',
   'PYMODULE'),
  ('subprocess',
   'c:\\users\\ferna\\appdata\\local\\programs\\python\\python38-32\\lib\\subprocess.py',
   'PYMODULE'),
  ('shutil',
   'c:\\users\\ferna\\appdata\\local\\programs\\python\\python38-32\\lib\\shutil.py',
   'PYMODULE'),
  ('tarfile',
   'c:\\users\\ferna\\appdata\\local\\programs\\python\\python38-32\\lib\\tarfile.py',
   'PYMODULE'),
  ('lzma',
   'c:\\users\\ferna\\appdata\\local\\programs\\python\\python38-32\\lib\\lzma.py',
   'PYMODULE'),
  ('bz2',
   'c:\\users\\ferna\\appdata\\local\\programs\\python\\python38-32\\lib\\bz2.py',
   'PYMODULE'),
  ('pdb',
   'c:\\users\\ferna\\appdata\\local\\programs\\python\\python38-32\\lib\\pdb.py',
   'PYMODULE'),
  ('pydoc',
   'c:\\users\\ferna\\appdata\\local\\programs\\python\\python38-32\\lib\\pydoc.py',
   'PYMODULE'),
  ('webbrowser',
   'c:\\users\\ferna\\appdata\\local\\programs\\python\\python38-32\\lib\\webbrowser.py',
   'PYMODULE'),
  ('http.server',
   'c:\\users\\ferna\\appdata\\local\\programs\\python\\python38-32\\lib\\http\\server.py',
   'PYMODULE'),
  ('socketserver',
   'c:\\users\\ferna\\appdata\\local\\programs\\python\\python38-32\\lib\\socketserver.py',
   'PYMODULE'),
  ('html',
   'c:\\users\\ferna\\appdata\\local\\programs\\python\\python38-32\\lib\\html\\__init__.py',
   'PYMODULE'),
  ('html.entities',
   'c:\\users\\ferna\\appdata\\local\\programs\\python\\python38-32\\lib\\html\\entities.py',
   'PYMODULE'),
  ('pydoc_data.topics',
   'c:\\users\\ferna\\appdata\\local\\programs\\python\\python38-32\\lib\\pydoc_data\\topics.py',
   'PYMODULE'),
  ('pydoc_data',
   'c:\\users\\ferna\\appdata\\local\\programs\\python\\python38-32\\lib\\pydoc_data\\__init__.py',
   'PYMODULE'),
  ('tty',
   'c:\\users\\ferna\\appdata\\local\\programs\\python\\python38-32\\lib\\tty.py',
   'PYMODULE'),
  ('glob',
   'c:\\users\\ferna\\appdata\\local\\programs\\python\\python38-32\\lib\\glob.py',
   'PYMODULE'),
  ('code',
   'c:\\users\\ferna\\appdata\\local\\programs\\python\\python38-32\\lib\\code.py',
   'PYMODULE'),
  ('codeop',
   'c:\\users\\ferna\\appdata\\local\\programs\\python\\python38-32\\lib\\codeop.py',
   'PYMODULE'),
  ('dis',
   'c:\\users\\ferna\\appdata\\local\\programs\\python\\python38-32\\lib\\dis.py',
   'PYMODULE'),
  ('opcode',
   'c:\\users\\ferna\\appdata\\local\\programs\\python\\python38-32\\lib\\opcode.py',
   'PYMODULE'),
  ('bdb',
   'c:\\users\\ferna\\appdata\\local\\programs\\python\\python38-32\\lib\\bdb.py',
   'PYMODULE'),
  ('cmd',
   'c:\\users\\ferna\\appdata\\local\\programs\\python\\python38-32\\lib\\cmd.py',
   'PYMODULE'),
  ('threading',
   'c:\\users\\ferna\\appdata\\local\\programs\\python\\python38-32\\lib\\threading.py',
   'PYMODULE'),
  ('_threading_local',
   'c:\\users\\ferna\\appdata\\local\\programs\\python\\python38-32\\lib\\_threading_local.py',
   'PYMODULE'),
  ('datetime',
   'c:\\users\\ferna\\appdata\\local\\programs\\python\\python38-32\\lib\\datetime.py',
   'PYMODULE'),
  ('_strptime',
   'c:\\users\\ferna\\appdata\\local\\programs\\python\\python38-32\\lib\\_strptime.py',
   'PYMODULE'),
  ('pprint',
   'c:\\users\\ferna\\appdata\\local\\programs\\python\\python38-32\\lib\\pprint.py',
   'PYMODULE'),
  ('copy',
   'c:\\users\\ferna\\appdata\\local\\programs\\python\\python38-32\\lib\\copy.py',
   'PYMODULE'),
  ('pkg_resources._vendor.packaging.specifiers',
   'c:\\users\\ferna\\appdata\\local\\programs\\python\\python38-32\\lib\\site-packages\\pkg_resources\\_vendor\\packaging\\specifiers.py',
   'PYMODULE'),
  ('pkg_resources._vendor.packaging',
   'c:\\users\\ferna\\appdata\\local\\programs\\python\\python38-32\\lib\\site-packages\\pkg_resources\\_vendor\\packaging\\__init__.py',
   'PYMODULE'),
  ('pkg_resources._vendor.packaging.tags',
   'c:\\users\\ferna\\appdata\\local\\programs\\python\\python38-32\\lib\\site-packages\\pkg_resources\\_vendor\\packaging\\tags.py',
   'PYMODULE'),
  ('distutils.util',
   'c:\\users\\ferna\\appdata\\local\\programs\\python\\python38-32\\lib\\distutils\\util.py',
   'PYMODULE'),
  ('distutils.filelist',
   'c:\\users\\ferna\\appdata\\local\\programs\\python\\python38-32\\lib\\distutils\\filelist.py',
   'PYMODULE'),
  ('distutils.debug',
   'c:\\users\\ferna\\appdata\\local\\programs\\python\\python38-32\\lib\\distutils\\debug.py',
   'PYMODULE'),
  ('distutils.file_util',
   'c:\\users\\ferna\\appdata\\local\\programs\\python\\python38-32\\lib\\distutils\\file_util.py',
   'PYMODULE'),
  ('distutils.dir_util',
   'c:\\users\\ferna\\appdata\\local\\programs\\python\\python38-32\\lib\\distutils\\dir_util.py',
   'PYMODULE'),
  ('py_compile',
   'c:\\users\\ferna\\appdata\\local\\programs\\python\\python38-32\\lib\\py_compile.py',
   'PYMODULE'),
  ('distutils.sysconfig',
   'c:\\users\\ferna\\appdata\\local\\programs\\python\\python38-32\\lib\\distutils\\sysconfig.py',
   'PYMODULE'),
  ('distutils.text_file',
   'c:\\users\\ferna\\appdata\\local\\programs\\python\\python38-32\\lib\\distutils\\text_file.py',
   'PYMODULE'),
  ('_osx_support',
   'c:\\users\\ferna\\appdata\\local\\programs\\python\\python38-32\\lib\\_osx_support.py',
   'PYMODULE'),
  ('distutils.log',
   'c:\\users\\ferna\\appdata\\local\\programs\\python\\python38-32\\lib\\distutils\\log.py',
   'PYMODULE'),
  ('distutils',
   'c:\\users\\ferna\\appdata\\local\\programs\\python\\python38-32\\lib\\distutils\\__init__.py',
   'PYMODULE'),
  ('distutils.spawn',
   'c:\\users\\ferna\\appdata\\local\\programs\\python\\python38-32\\lib\\distutils\\spawn.py',
   'PYMODULE'),
  ('distutils.dep_util',
   'c:\\users\\ferna\\appdata\\local\\programs\\python\\python38-32\\lib\\distutils\\dep_util.py',
   'PYMODULE'),
  ('distutils.errors',
   'c:\\users\\ferna\\appdata\\local\\programs\\python\\python38-32\\lib\\distutils\\errors.py',
   'PYMODULE'),
  ('pkg_resources._vendor.appdirs',
   'c:\\users\\ferna\\appdata\\local\\programs\\python\\python38-32\\lib\\site-packages\\pkg_resources\\_vendor\\appdirs.py',
   'PYMODULE'),
  ('pkg_resources._vendor.packaging.utils',
   'c:\\users\\ferna\\appdata\\local\\programs\\python\\python38-32\\lib\\site-packages\\pkg_resources\\_vendor\\packaging\\utils.py',
   'PYMODULE'),
  ('sysconfig',
   'c:\\users\\ferna\\appdata\\local\\programs\\python\\python38-32\\lib\\sysconfig.py',
   'PYMODULE'),
  ('pkg_resources.extern',
   'c:\\users\\ferna\\appdata\\local\\programs\\python\\python38-32\\lib\\site-packages\\pkg_resources\\extern\\__init__.py',
   'PYMODULE'),
  ('importlib.machinery',
   'c:\\users\\ferna\\appdata\\local\\programs\\python\\python38-32\\lib\\importlib\\machinery.py',
   'PYMODULE'),
  ('imp',
   'c:\\users\\ferna\\appdata\\local\\programs\\python\\python38-32\\lib\\imp.py',
   'PYMODULE'),
  ('importlib',
   'c:\\users\\ferna\\appdata\\local\\programs\\python\\python38-32\\lib\\importlib\\__init__.py',
   'PYMODULE'),
  ('posixpath',
   'c:\\users\\ferna\\appdata\\local\\programs\\python\\python38-32\\lib\\posixpath.py',
   'PYMODULE'),
  ('genericpath',
   'c:\\users\\ferna\\appdata\\local\\programs\\python\\python38-32\\lib\\genericpath.py',
   'PYMODULE'),
  ('ntpath',
   'c:\\users\\ferna\\appdata\\local\\programs\\python\\python38-32\\lib\\ntpath.py',
   'PYMODULE'),
  ('inspect',
   'c:\\users\\ferna\\appdata\\local\\programs\\python\\python38-32\\lib\\inspect.py',
   'PYMODULE'),
  ('ast',
   'c:\\users\\ferna\\appdata\\local\\programs\\python\\python38-32\\lib\\ast.py',
   'PYMODULE'),
  ('textwrap',
   'c:\\users\\ferna\\appdata\\local\\programs\\python\\python38-32\\lib\\textwrap.py',
   'PYMODULE'),
  ('tempfile',
   'c:\\users\\ferna\\appdata\\local\\programs\\python\\python38-32\\lib\\tempfile.py',
   'PYMODULE'),
  ('email.parser',
   'c:\\users\\ferna\\appdata\\local\\programs\\python\\python38-32\\lib\\email\\parser.py',
   'PYMODULE'),
  ('email.feedparser',
   'c:\\users\\ferna\\appdata\\local\\programs\\python\\python38-32\\lib\\email\\feedparser.py',
   'PYMODULE'),
  ('plistlib',
   'c:\\users\\ferna\\appdata\\local\\programs\\python\\python38-32\\lib\\plistlib.py',
   'PYMODULE'),
  ('platform',
   'c:\\users\\ferna\\appdata\\local\\programs\\python\\python38-32\\lib\\platform.py',
   'PYMODULE'),
  ('pkgutil',
   'c:\\users\\ferna\\appdata\\local\\programs\\python\\python38-32\\lib\\pkgutil.py',
   'PYMODULE'),
  ('stat',
   'c:\\users\\ferna\\appdata\\local\\programs\\python\\python38-32\\lib\\stat.py',
   'PYMODULE'),
  ('zipimport',
   'c:\\users\\ferna\\appdata\\local\\programs\\python\\python38-32\\lib\\zipimport.py',
   'PYMODULE'),
  ('zipfile',
   'c:\\users\\ferna\\appdata\\local\\programs\\python\\python38-32\\lib\\zipfile.py',
   'PYMODULE'),
  ('pathlib',
   'c:\\users\\ferna\\appdata\\local\\programs\\python\\python38-32\\lib\\pathlib.py',
   'PYMODULE'),
  ('os',
   'c:\\users\\ferna\\appdata\\local\\programs\\python\\python38-32\\lib\\os.py',
   'PYMODULE'),
  ('tracemalloc',
   'c:\\users\\ferna\\appdata\\local\\programs\\python\\python38-32\\lib\\tracemalloc.py',
   'PYMODULE'),
  ('stringprep',
   'c:\\users\\ferna\\appdata\\local\\programs\\python\\python38-32\\lib\\stringprep.py',
   'PYMODULE'),
  ('_py_abc',
   'c:\\users\\ferna\\appdata\\local\\programs\\python\\python38-32\\lib\\_py_abc.py',
   'PYMODULE'),
  ('RetriveService',
   'C:\\Users\\ferna\\PycharmProjects\\RetriveCoin\\RetriveService.py',
   'PYMODULE'),
  ('requests',
   'c:\\users\\ferna\\appdata\\local\\programs\\python\\python38-32\\lib\\site-packages\\requests\\__init__.py',
   'PYMODULE'),
  ('requests.status_codes',
   'c:\\users\\ferna\\appdata\\local\\programs\\python\\python38-32\\lib\\site-packages\\requests\\status_codes.py',
   'PYMODULE'),
  ('requests.structures',
   'c:\\users\\ferna\\appdata\\local\\programs\\python\\python38-32\\lib\\site-packages\\requests\\structures.py',
   'PYMODULE'),
  ('requests.compat',
   'c:\\users\\ferna\\appdata\\local\\programs\\python\\python38-32\\lib\\site-packages\\requests\\compat.py',
   'PYMODULE'),
  ('http.cookies',
   'c:\\users\\ferna\\appdata\\local\\programs\\python\\python38-32\\lib\\http\\cookies.py',
   'PYMODULE'),
  ('requests.api',
   'c:\\users\\ferna\\appdata\\local\\programs\\python\\python38-32\\lib\\site-packages\\requests\\api.py',
   'PYMODULE'),
  ('requests.sessions',
   'c:\\users\\ferna\\appdata\\local\\programs\\python\\python38-32\\lib\\site-packages\\requests\\sessions.py',
   'PYMODULE'),
  ('requests.adapters',
   'c:\\users\\ferna\\appdata\\local\\programs\\python\\python38-32\\lib\\site-packages\\requests\\adapters.py',
   'PYMODULE'),
  ('urllib3.contrib.socks',
   'c:\\users\\ferna\\appdata\\local\\programs\\python\\python38-32\\lib\\site-packages\\urllib3\\contrib\\socks.py',
   'PYMODULE'),
  ('urllib3.util.url',
   'c:\\users\\ferna\\appdata\\local\\programs\\python\\python38-32\\lib\\site-packages\\urllib3\\util\\url.py',
   'PYMODULE'),
  ('idna',
   'c:\\users\\ferna\\appdata\\local\\programs\\python\\python38-32\\lib\\site-packages\\idna\\__init__.py',
   'PYMODULE'),
  ('idna.core',
   'c:\\users\\ferna\\appdata\\local\\programs\\python\\python38-32\\lib\\site-packages\\idna\\core.py',
   'PYMODULE'),
  ('idna.uts46data',
   'c:\\users\\ferna\\appdata\\local\\programs\\python\\python38-32\\lib\\site-packages\\idna\\uts46data.py',
   'PYMODULE'),
  ('idna.intranges',
   'c:\\users\\ferna\\appdata\\local\\programs\\python\\python38-32\\lib\\site-packages\\idna\\intranges.py',
   'PYMODULE'),
  ('idna.idnadata',
   'c:\\users\\ferna\\appdata\\local\\programs\\python\\python38-32\\lib\\site-packages\\idna\\idnadata.py',
   'PYMODULE'),
  ('idna.package_data',
   'c:\\users\\ferna\\appdata\\local\\programs\\python\\python38-32\\lib\\site-packages\\idna\\package_data.py',
   'PYMODULE'),
  ('urllib3.packages.six',
   'c:\\users\\ferna\\appdata\\local\\programs\\python\\python38-32\\lib\\site-packages\\urllib3\\packages\\six.py',
   'PYMODULE'),
  ('urllib3.packages',
   'c:\\users\\ferna\\appdata\\local\\programs\\python\\python38-32\\lib\\site-packages\\urllib3\\packages\\__init__.py',
   'PYMODULE'),
  ('urllib3.packages.ssl_match_hostname',
   'c:\\users\\ferna\\appdata\\local\\programs\\python\\python38-32\\lib\\site-packages\\urllib3\\packages\\ssl_match_hostname\\__init__.py',
   'PYMODULE'),
  ('urllib3.packages.ssl_match_hostname._implementation',
   'c:\\users\\ferna\\appdata\\local\\programs\\python\\python38-32\\lib\\site-packages\\urllib3\\packages\\ssl_match_hostname\\_implementation.py',
   'PYMODULE'),
  ('ipaddress',
   'c:\\users\\ferna\\appdata\\local\\programs\\python\\python38-32\\lib\\ipaddress.py',
   'PYMODULE'),
  ('urllib3.connectionpool',
   'c:\\users\\ferna\\appdata\\local\\programs\\python\\python38-32\\lib\\site-packages\\urllib3\\connectionpool.py',
   'PYMODULE'),
  ('urllib3.util.queue',
   'c:\\users\\ferna\\appdata\\local\\programs\\python\\python38-32\\lib\\site-packages\\urllib3\\util\\queue.py',
   'PYMODULE'),
  ('urllib3.util.timeout',
   'c:\\users\\ferna\\appdata\\local\\programs\\python\\python38-32\\lib\\site-packages\\urllib3\\util\\timeout.py',
   'PYMODULE'),
  ('urllib3.util.response',
   'c:\\users\\ferna\\appdata\\local\\programs\\python\\python38-32\\lib\\site-packages\\urllib3\\util\\response.py',
   'PYMODULE'),
  ('urllib3.util.request',
   'c:\\users\\ferna\\appdata\\local\\programs\\python\\python38-32\\lib\\site-packages\\urllib3\\util\\request.py',
   'PYMODULE'),
  ('urllib3.util.connection',
   'c:\\users\\ferna\\appdata\\local\\programs\\python\\python38-32\\lib\\site-packages\\urllib3\\util\\connection.py',
   'PYMODULE'),
  ('urllib3.contrib._appengine_environ',
   'c:\\users\\ferna\\appdata\\local\\programs\\python\\python38-32\\lib\\site-packages\\urllib3\\contrib\\_appengine_environ.py',
   'PYMODULE'),
  ('urllib3.util.wait',
   'c:\\users\\ferna\\appdata\\local\\programs\\python\\python38-32\\lib\\site-packages\\urllib3\\util\\wait.py',
   'PYMODULE'),
  ('urllib3.request',
   'c:\\users\\ferna\\appdata\\local\\programs\\python\\python38-32\\lib\\site-packages\\urllib3\\request.py',
   'PYMODULE'),
  ('urllib3.filepost',
   'c:\\users\\ferna\\appdata\\local\\programs\\python\\python38-32\\lib\\site-packages\\urllib3\\filepost.py',
   'PYMODULE'),
  ('urllib3.fields',
   'c:\\users\\ferna\\appdata\\local\\programs\\python\\python38-32\\lib\\site-packages\\urllib3\\fields.py',
   'PYMODULE'),
  ('urllib3.connection',
   'c:\\users\\ferna\\appdata\\local\\programs\\python\\python38-32\\lib\\site-packages\\urllib3\\connection.py',
   'PYMODULE'),
  ('urllib3._collections',
   'c:\\users\\ferna\\appdata\\local\\programs\\python\\python38-32\\lib\\site-packages\\urllib3\\_collections.py',
   'PYMODULE'),
  ('urllib3.util.ssl_',
   'c:\\users\\ferna\\appdata\\local\\programs\\python\\python38-32\\lib\\site-packages\\urllib3\\util\\ssl_.py',
   'PYMODULE'),
  ('urllib3.util.retry',
   'c:\\users\\ferna\\appdata\\local\\programs\\python\\python38-32\\lib\\site-packages\\urllib3\\util\\retry.py',
   'PYMODULE'),
  ('urllib3.util',
   'c:\\users\\ferna\\appdata\\local\\programs\\python\\python38-32\\lib\\site-packages\\urllib3\\util\\__init__.py',
   'PYMODULE'),
  ('urllib3.response',
   'c:\\users\\ferna\\appdata\\local\\programs\\python\\python38-32\\lib\\site-packages\\urllib3\\response.py',
   'PYMODULE'),
  ('urllib3.poolmanager',
   'c:\\users\\ferna\\appdata\\local\\programs\\python\\python38-32\\lib\\site-packages\\urllib3\\poolmanager.py',
   'PYMODULE'),
  ('requests._internal_utils',
   'c:\\users\\ferna\\appdata\\local\\programs\\python\\python38-32\\lib\\site-packages\\requests\\_internal_utils.py',
   'PYMODULE'),
  ('requests.hooks',
   'c:\\users\\ferna\\appdata\\local\\programs\\python\\python38-32\\lib\\site-packages\\requests\\hooks.py',
   'PYMODULE'),
  ('requests.cookies',
   'c:\\users\\ferna\\appdata\\local\\programs\\python\\python38-32\\lib\\site-packages\\requests\\cookies.py',
   'PYMODULE'),
  ('dummy_threading',
   'c:\\users\\ferna\\appdata\\local\\programs\\python\\python38-32\\lib\\dummy_threading.py',
   'PYMODULE'),
  ('_dummy_thread',
   'c:\\users\\ferna\\appdata\\local\\programs\\python\\python38-32\\lib\\_dummy_thread.py',
   'PYMODULE'),
  ('requests.auth',
   'c:\\users\\ferna\\appdata\\local\\programs\\python\\python38-32\\lib\\site-packages\\requests\\auth.py',
   'PYMODULE'),
  ('requests.models',
   'c:\\users\\ferna\\appdata\\local\\programs\\python\\python38-32\\lib\\site-packages\\requests\\models.py',
   'PYMODULE'),
  ('requests.packages',
   'c:\\users\\ferna\\appdata\\local\\programs\\python\\python38-32\\lib\\site-packages\\requests\\packages.py',
   'PYMODULE'),
  ('requests.utils',
   'c:\\users\\ferna\\appdata\\local\\programs\\python\\python38-32\\lib\\site-packages\\requests\\utils.py',
   'PYMODULE'),
  ('requests.certs',
   'c:\\users\\ferna\\appdata\\local\\programs\\python\\python38-32\\lib\\site-packages\\requests\\certs.py',
   'PYMODULE'),
  ('certifi',
   'c:\\users\\ferna\\appdata\\local\\programs\\python\\python38-32\\lib\\site-packages\\certifi\\__init__.py',
   'PYMODULE'),
  ('certifi.core',
   'c:\\users\\ferna\\appdata\\local\\programs\\python\\python38-32\\lib\\site-packages\\certifi\\core.py',
   'PYMODULE'),
  ('importlib.resources',
   'c:\\users\\ferna\\appdata\\local\\programs\\python\\python38-32\\lib\\importlib\\resources.py',
   'PYMODULE'),
  ('requests.__version__',
   'c:\\users\\ferna\\appdata\\local\\programs\\python\\python38-32\\lib\\site-packages\\requests\\__version__.py',
   'PYMODULE'),
  ('urllib3.exceptions',
   'c:\\users\\ferna\\appdata\\local\\programs\\python\\python38-32\\lib\\site-packages\\urllib3\\exceptions.py',
   'PYMODULE'),
  ('urllib3.contrib.pyopenssl',
   'c:\\users\\ferna\\appdata\\local\\programs\\python\\python38-32\\lib\\site-packages\\urllib3\\contrib\\pyopenssl.py',
   'PYMODULE'),
  ('urllib3.packages.backports.makefile',
   'c:\\users\\ferna\\appdata\\local\\programs\\python\\python38-32\\lib\\site-packages\\urllib3\\packages\\backports\\makefile.py',
   'PYMODULE'),
  ('urllib3.packages.backports',
   'c:\\users\\ferna\\appdata\\local\\programs\\python\\python38-32\\lib\\site-packages\\urllib3\\packages\\backports\\__init__.py',
   'PYMODULE'),
  ('urllib3.contrib',
   'c:\\users\\ferna\\appdata\\local\\programs\\python\\python38-32\\lib\\site-packages\\urllib3\\contrib\\__init__.py',
   'PYMODULE'),
  ('requests.exceptions',
   'c:\\users\\ferna\\appdata\\local\\programs\\python\\python38-32\\lib\\site-packages\\requests\\exceptions.py',
   'PYMODULE'),
  ('chardet',
   'c:\\users\\ferna\\appdata\\local\\programs\\python\\python38-32\\lib\\site-packages\\chardet\\__init__.py',
   'PYMODULE'),
  ('chardet.version',
   'c:\\users\\ferna\\appdata\\local\\programs\\python\\python38-32\\lib\\site-packages\\chardet\\version.py',
   'PYMODULE'),
  ('chardet.enums',
   'c:\\users\\ferna\\appdata\\local\\programs\\python\\python38-32\\lib\\site-packages\\chardet\\enums.py',
   'PYMODULE'),
  ('chardet.universaldetector',
   'c:\\users\\ferna\\appdata\\local\\programs\\python\\python38-32\\lib\\site-packages\\chardet\\universaldetector.py',
   'PYMODULE'),
  ('chardet.sbcsgroupprober',
   'c:\\users\\ferna\\appdata\\local\\programs\\python\\python38-32\\lib\\site-packages\\chardet\\sbcsgroupprober.py',
   'PYMODULE'),
  ('chardet.sbcharsetprober',
   'c:\\users\\ferna\\appdata\\local\\programs\\python\\python38-32\\lib\\site-packages\\chardet\\sbcharsetprober.py',
   'PYMODULE'),
  ('chardet.charsetprober',
   'c:\\users\\ferna\\appdata\\local\\programs\\python\\python38-32\\lib\\site-packages\\chardet\\charsetprober.py',
   'PYMODULE'),
  ('chardet.langturkishmodel',
   'c:\\users\\ferna\\appdata\\local\\programs\\python\\python38-32\\lib\\site-packages\\chardet\\langturkishmodel.py',
   'PYMODULE'),
  ('chardet.langthaimodel',
   'c:\\users\\ferna\\appdata\\local\\programs\\python\\python38-32\\lib\\site-packages\\chardet\\langthaimodel.py',
   'PYMODULE'),
  ('chardet.langrussianmodel',
   'c:\\users\\ferna\\appdata\\local\\programs\\python\\python38-32\\lib\\site-packages\\chardet\\langrussianmodel.py',
   'PYMODULE'),
  ('chardet.langhebrewmodel',
   'c:\\users\\ferna\\appdata\\local\\programs\\python\\python38-32\\lib\\site-packages\\chardet\\langhebrewmodel.py',
   'PYMODULE'),
  ('chardet.langgreekmodel',
   'c:\\users\\ferna\\appdata\\local\\programs\\python\\python38-32\\lib\\site-packages\\chardet\\langgreekmodel.py',
   'PYMODULE'),
  ('chardet.langbulgarianmodel',
   'c:\\users\\ferna\\appdata\\local\\programs\\python\\python38-32\\lib\\site-packages\\chardet\\langbulgarianmodel.py',
   'PYMODULE'),
  ('chardet.hebrewprober',
   'c:\\users\\ferna\\appdata\\local\\programs\\python\\python38-32\\lib\\site-packages\\chardet\\hebrewprober.py',
   'PYMODULE'),
  ('chardet.mbcsgroupprober',
   'c:\\users\\ferna\\appdata\\local\\programs\\python\\python38-32\\lib\\site-packages\\chardet\\mbcsgroupprober.py',
   'PYMODULE'),
  ('chardet.euctwprober',
   'c:\\users\\ferna\\appdata\\local\\programs\\python\\python38-32\\lib\\site-packages\\chardet\\euctwprober.py',
   'PYMODULE'),
  ('chardet.mbcssm',
   'c:\\users\\ferna\\appdata\\local\\programs\\python\\python38-32\\lib\\site-packages\\chardet\\mbcssm.py',
   'PYMODULE'),
  ('chardet.chardistribution',
   'c:\\users\\ferna\\appdata\\local\\programs\\python\\python38-32\\lib\\site-packages\\chardet\\chardistribution.py',
   'PYMODULE'),
  ('chardet.jisfreq',
   'c:\\users\\ferna\\appdata\\local\\programs\\python\\python38-32\\lib\\site-packages\\chardet\\jisfreq.py',
   'PYMODULE'),
  ('chardet.big5freq',
   'c:\\users\\ferna\\appdata\\local\\programs\\python\\python38-32\\lib\\site-packages\\chardet\\big5freq.py',
   'PYMODULE'),
  ('chardet.gb2312freq',
   'c:\\users\\ferna\\appdata\\local\\programs\\python\\python38-32\\lib\\site-packages\\chardet\\gb2312freq.py',
   'PYMODULE'),
  ('chardet.euckrfreq',
   'c:\\users\\ferna\\appdata\\local\\programs\\python\\python38-32\\lib\\site-packages\\chardet\\euckrfreq.py',
   'PYMODULE'),
  ('chardet.euctwfreq',
   'c:\\users\\ferna\\appdata\\local\\programs\\python\\python38-32\\lib\\site-packages\\chardet\\euctwfreq.py',
   'PYMODULE'),
  ('chardet.codingstatemachine',
   'c:\\users\\ferna\\appdata\\local\\programs\\python\\python38-32\\lib\\site-packages\\chardet\\codingstatemachine.py',
   'PYMODULE'),
  ('chardet.mbcharsetprober',
   'c:\\users\\ferna\\appdata\\local\\programs\\python\\python38-32\\lib\\site-packages\\chardet\\mbcharsetprober.py',
   'PYMODULE'),
  ('chardet.big5prober',
   'c:\\users\\ferna\\appdata\\local\\programs\\python\\python38-32\\lib\\site-packages\\chardet\\big5prober.py',
   'PYMODULE'),
  ('chardet.cp949prober',
   'c:\\users\\ferna\\appdata\\local\\programs\\python\\python38-32\\lib\\site-packages\\chardet\\cp949prober.py',
   'PYMODULE'),
  ('chardet.euckrprober',
   'c:\\users\\ferna\\appdata\\local\\programs\\python\\python38-32\\lib\\site-packages\\chardet\\euckrprober.py',
   'PYMODULE'),
  ('chardet.gb2312prober',
   'c:\\users\\ferna\\appdata\\local\\programs\\python\\python38-32\\lib\\site-packages\\chardet\\gb2312prober.py',
   'PYMODULE'),
  ('chardet.eucjpprober',
   'c:\\users\\ferna\\appdata\\local\\programs\\python\\python38-32\\lib\\site-packages\\chardet\\eucjpprober.py',
   'PYMODULE'),
  ('chardet.jpcntx',
   'c:\\users\\ferna\\appdata\\local\\programs\\python\\python38-32\\lib\\site-packages\\chardet\\jpcntx.py',
   'PYMODULE'),
  ('chardet.sjisprober',
   'c:\\users\\ferna\\appdata\\local\\programs\\python\\python38-32\\lib\\site-packages\\chardet\\sjisprober.py',
   'PYMODULE'),
  ('chardet.utf8prober',
   'c:\\users\\ferna\\appdata\\local\\programs\\python\\python38-32\\lib\\site-packages\\chardet\\utf8prober.py',
   'PYMODULE'),
  ('chardet.latin1prober',
   'c:\\users\\ferna\\appdata\\local\\programs\\python\\python38-32\\lib\\site-packages\\chardet\\latin1prober.py',
   'PYMODULE'),
  ('chardet.escprober',
   'c:\\users\\ferna\\appdata\\local\\programs\\python\\python38-32\\lib\\site-packages\\chardet\\escprober.py',
   'PYMODULE'),
  ('chardet.escsm',
   'c:\\users\\ferna\\appdata\\local\\programs\\python\\python38-32\\lib\\site-packages\\chardet\\escsm.py',
   'PYMODULE'),
  ('chardet.charsetgroupprober',
   'c:\\users\\ferna\\appdata\\local\\programs\\python\\python38-32\\lib\\site-packages\\chardet\\charsetgroupprober.py',
   'PYMODULE'),
  ('urllib3',
   'c:\\users\\ferna\\appdata\\local\\programs\\python\\python38-32\\lib\\site-packages\\urllib3\\__init__.py',
   'PYMODULE'),
  ('json',
   'c:\\users\\ferna\\appdata\\local\\programs\\python\\python38-32\\lib\\json\\__init__.py',
   'PYMODULE'),
  ('json.encoder',
   'c:\\users\\ferna\\appdata\\local\\programs\\python\\python38-32\\lib\\json\\encoder.py',
   'PYMODULE'),
  ('json.decoder',
   'c:\\users\\ferna\\appdata\\local\\programs\\python\\python38-32\\lib\\json\\decoder.py',
   'PYMODULE'),
  ('json.scanner',
   'c:\\users\\ferna\\appdata\\local\\programs\\python\\python38-32\\lib\\json\\scanner.py',
   'PYMODULE'),
  ('apscheduler.schedulers.blocking',
   'c:\\users\\ferna\\appdata\\local\\programs\\python\\python38-32\\lib\\site-packages\\apscheduler\\schedulers\\blocking.py',
   'PYMODULE'),
  ('apscheduler.schedulers',
   'c:\\users\\ferna\\appdata\\local\\programs\\python\\python38-32\\lib\\site-packages\\apscheduler\\schedulers\\__init__.py',
   'PYMODULE'),
  ('apscheduler',
   'c:\\users\\ferna\\appdata\\local\\programs\\python\\python38-32\\lib\\site-packages\\apscheduler\\__init__.py',
   'PYMODULE'),
  ('apscheduler.jobstores.memory',
   'c:\\users\\ferna\\appdata\\local\\programs\\python\\python38-32\\lib\\site-packages\\apscheduler\\jobstores\\memory.py',
   'PYMODULE'),
  ('apscheduler.jobstores.zookeeper',
   'c:\\users\\ferna\\appdata\\local\\programs\\python\\python38-32\\lib\\site-packages\\apscheduler\\jobstores\\zookeeper.py',
   'PYMODULE'),
  ('pytz',
   'c:\\users\\ferna\\appdata\\local\\programs\\python\\python38-32\\lib\\site-packages\\pytz\\__init__.py',
   'PYMODULE'),
  ('pytz.tzfile',
   'c:\\users\\ferna\\appdata\\local\\programs\\python\\python38-32\\lib\\site-packages\\pytz\\tzfile.py',
   'PYMODULE'),
  ('pytz.tzinfo',
   'c:\\users\\ferna\\appdata\\local\\programs\\python\\python38-32\\lib\\site-packages\\pytz\\tzinfo.py',
   'PYMODULE'),
  ('pytz.lazy',
   'c:\\users\\ferna\\appdata\\local\\programs\\python\\python38-32\\lib\\site-packages\\pytz\\lazy.py',
   'PYMODULE'),
  ('pytz.exceptions',
   'c:\\users\\ferna\\appdata\\local\\programs\\python\\python38-32\\lib\\site-packages\\pytz\\exceptions.py',
   'PYMODULE'),
  ('apscheduler.jobstores.redis',
   'c:\\users\\ferna\\appdata\\local\\programs\\python\\python38-32\\lib\\site-packages\\apscheduler\\jobstores\\redis.py',
   'PYMODULE'),
  ('six',
   'c:\\users\\ferna\\appdata\\local\\programs\\python\\python38-32\\lib\\site-packages\\six.py',
   'PYMODULE'),
  ('apscheduler.jobstores.base',
   'c:\\users\\ferna\\appdata\\local\\programs\\python\\python38-32\\lib\\site-packages\\apscheduler\\jobstores\\base.py',
   'PYMODULE'),
  ('apscheduler.executors.tornado',
   'c:\\users\\ferna\\appdata\\local\\programs\\python\\python38-32\\lib\\site-packages\\apscheduler\\executors\\tornado.py',
   'PYMODULE'),
  ('apscheduler.triggers.base',
   'c:\\users\\ferna\\appdata\\local\\programs\\python\\python38-32\\lib\\site-packages\\apscheduler\\triggers\\base.py',
   'PYMODULE'),
  ('apscheduler.triggers',
   'c:\\users\\ferna\\appdata\\local\\programs\\python\\python38-32\\lib\\site-packages\\apscheduler\\triggers\\__init__.py',
   'PYMODULE'),
  ('apscheduler.executors.base_py3',
   'c:\\users\\ferna\\appdata\\local\\programs\\python\\python38-32\\lib\\site-packages\\apscheduler\\executors\\base_py3.py',
   'PYMODULE'),
  ('apscheduler.schedulers.twisted',
   'c:\\users\\ferna\\appdata\\local\\programs\\python\\python38-32\\lib\\site-packages\\apscheduler\\schedulers\\twisted.py',
   'PYMODULE'),
  ('apscheduler.executors',
   'c:\\users\\ferna\\appdata\\local\\programs\\python\\python38-32\\lib\\site-packages\\apscheduler\\executors\\__init__.py',
   'PYMODULE'),
  ('apscheduler.triggers.cron',
   'c:\\users\\ferna\\appdata\\local\\programs\\python\\python38-32\\lib\\site-packages\\apscheduler\\triggers\\cron\\__init__.py',
   'PYMODULE'),
  ('tzlocal',
   'c:\\users\\ferna\\appdata\\local\\programs\\python\\python38-32\\lib\\site-packages\\tzlocal\\__init__.py',
   'PYMODULE'),
  ('tzlocal.unix',
   'c:\\users\\ferna\\appdata\\local\\programs\\python\\python38-32\\lib\\site-packages\\tzlocal\\unix.py',
   'PYMODULE'),
  ('tzlocal.win32',
   'c:\\users\\ferna\\appdata\\local\\programs\\python\\python38-32\\lib\\site-packages\\tzlocal\\win32.py',
   'PYMODULE'),
  ('tzlocal.windows_tz',
   'c:\\users\\ferna\\appdata\\local\\programs\\python\\python38-32\\lib\\site-packages\\tzlocal\\windows_tz.py',
   'PYMODULE'),
  ('tzlocal.utils',
   'c:\\users\\ferna\\appdata\\local\\programs\\python\\python38-32\\lib\\site-packages\\tzlocal\\utils.py',
   'PYMODULE'),
  ('apscheduler.events',
   'c:\\users\\ferna\\appdata\\local\\programs\\python\\python38-32\\lib\\site-packages\\apscheduler\\events.py',
   'PYMODULE'),
  ('apscheduler.executors.debug',
   'c:\\users\\ferna\\appdata\\local\\programs\\python\\python38-32\\lib\\site-packages\\apscheduler\\executors\\debug.py',
   'PYMODULE'),
  ('apscheduler.schedulers.background',
   'c:\\users\\ferna\\appdata\\local\\programs\\python\\python38-32\\lib\\site-packages\\apscheduler\\schedulers\\background.py',
   'PYMODULE'),
  ('apscheduler.jobstores.rethinkdb',
   'c:\\users\\ferna\\appdata\\local\\programs\\python\\python38-32\\lib\\site-packages\\apscheduler\\jobstores\\rethinkdb.py',
   'PYMODULE'),
  ('apscheduler.executors.gevent',
   'c:\\users\\ferna\\appdata\\local\\programs\\python\\python38-32\\lib\\site-packages\\apscheduler\\executors\\gevent.py',
   'PYMODULE'),
  ('apscheduler.job',
   'c:\\users\\ferna\\appdata\\local\\programs\\python\\python38-32\\lib\\site-packages\\apscheduler\\job.py',
   'PYMODULE'),
  ('apscheduler.executors.pool',
   'c:\\users\\ferna\\appdata\\local\\programs\\python\\python38-32\\lib\\site-packages\\apscheduler\\executors\\pool.py',
   'PYMODULE'),
  ('apscheduler.triggers.combining',
   'c:\\users\\ferna\\appdata\\local\\programs\\python\\python38-32\\lib\\site-packages\\apscheduler\\triggers\\combining.py',
   'PYMODULE'),
  ('apscheduler.schedulers.gevent',
   'c:\\users\\ferna\\appdata\\local\\programs\\python\\python38-32\\lib\\site-packages\\apscheduler\\schedulers\\gevent.py',
   'PYMODULE'),
  ('apscheduler.jobstores',
   'c:\\users\\ferna\\appdata\\local\\programs\\python\\python38-32\\lib\\site-packages\\apscheduler\\jobstores\\__init__.py',
   'PYMODULE'),
  ('apscheduler.executors.base',
   'c:\\users\\ferna\\appdata\\local\\programs\\python\\python38-32\\lib\\site-packages\\apscheduler\\executors\\base.py',
   'PYMODULE'),
  ('apscheduler.jobstores.sqlalchemy',
   'c:\\users\\ferna\\appdata\\local\\programs\\python\\python38-32\\lib\\site-packages\\apscheduler\\jobstores\\sqlalchemy.py',
   'PYMODULE'),
  ('apscheduler.executors.asyncio',
   'c:\\users\\ferna\\appdata\\local\\programs\\python\\python38-32\\lib\\site-packages\\apscheduler\\executors\\asyncio.py',
   'PYMODULE'),
  ('apscheduler.triggers.cron.expressions',
   'c:\\users\\ferna\\appdata\\local\\programs\\python\\python38-32\\lib\\site-packages\\apscheduler\\triggers\\cron\\expressions.py',
   'PYMODULE'),
  ('apscheduler.jobstores.mongodb',
   'c:\\users\\ferna\\appdata\\local\\programs\\python\\python38-32\\lib\\site-packages\\apscheduler\\jobstores\\mongodb.py',
   'PYMODULE'),
  ('apscheduler.schedulers.tornado',
   'c:\\users\\ferna\\appdata\\local\\programs\\python\\python38-32\\lib\\site-packages\\apscheduler\\schedulers\\tornado.py',
   'PYMODULE'),
  ('apscheduler.schedulers.qt',
   'c:\\users\\ferna\\appdata\\local\\programs\\python\\python38-32\\lib\\site-packages\\apscheduler\\schedulers\\qt.py',
   'PYMODULE'),
  ('apscheduler.triggers.date',
   'c:\\users\\ferna\\appdata\\local\\programs\\python\\python38-32\\lib\\site-packages\\apscheduler\\triggers\\date.py',
   'PYMODULE'),
  ('apscheduler.executors.twisted',
   'c:\\users\\ferna\\appdata\\local\\programs\\python\\python38-32\\lib\\site-packages\\apscheduler\\executors\\twisted.py',
   'PYMODULE'),
  ('apscheduler.triggers.cron.fields',
   'c:\\users\\ferna\\appdata\\local\\programs\\python\\python38-32\\lib\\site-packages\\apscheduler\\triggers\\cron\\fields.py',
   'PYMODULE'),
  ('apscheduler.schedulers.asyncio',
   'c:\\users\\ferna\\appdata\\local\\programs\\python\\python38-32\\lib\\site-packages\\apscheduler\\schedulers\\asyncio.py',
   'PYMODULE'),
  ('apscheduler.triggers.interval',
   'c:\\users\\ferna\\appdata\\local\\programs\\python\\python38-32\\lib\\site-packages\\apscheduler\\triggers\\interval.py',
   'PYMODULE'),
  ('apscheduler.util',
   'c:\\users\\ferna\\appdata\\local\\programs\\python\\python38-32\\lib\\site-packages\\apscheduler\\util.py',
   'PYMODULE'),
  ('apscheduler.schedulers.base',
   'c:\\users\\ferna\\appdata\\local\\programs\\python\\python38-32\\lib\\site-packages\\apscheduler\\schedulers\\base.py',
   'PYMODULE')])
